# This file may be used to create an environment using:
# $ conda create --name <env> --file <this file>
# platform: linux-64
_libgcc_mutex=0.1=conda_forge
_openmp_mutex=4.5=1_llvm
_tflow_select=2.3.0=eigen
absl-py=0.11.0=py38h578d9bd_0
aiohttp=3.7.3=py38h497a2fe_1
alabaster=0.7.12=py_0
argon2-cffi=20.1.0=py38h497a2fe_2
ase=3.20.1=py_0
astor=0.8.1=pyh9f0ad1d_0
astunparse=1.6.3=pyhd8ed1ab_0
async-timeout=3.0.1=py_1000
async_generator=1.10=py_0
attrs=20.3.0=pyhd3deb0d_0
babel=2.9.0=pyhd3deb0d_0
backcall=0.2.0=pyh9f0ad1d_0
backports=1.0=py_2
backports.functools_lru_cache=1.6.1=py_0
blas=1.0=mkl
bleach=3.2.3=pyh44b312d_0
blinker=1.4=py_1
brotlipy=0.7.0=py38h497a2fe_1001
c-ares=1.17.1=h36c2ea0_0
ca-certificates=2020.12.5=ha878542_0
cachetools=4.2.1=pyhd8ed1ab_0
certifi=2020.12.5=py38h578d9bd_1
cffi=1.14.4=py38ha65f79e_1
chardet=3.0.4=py38h924ce5b_1008
click=7.1.2=pyh9f0ad1d_0
cryptography=3.3.1=py38h2b97feb_1
cudatoolkit=10.1.243=h6bb024c_0
cycler=0.10.0=py_2
cython=0.29.21=py38he6710b0_0
dbus=1.13.6=hfdff14a_1
decorator=4.4.2=py_0
defusedxml=0.6.0=py_0
docutils=0.16=py38h578d9bd_3
dscribe=0.4.0=pypi_0
entrypoints=0.3=pyhd8ed1ab_1003
expat=2.2.10=h9c3ff4c_0
fftw=3.3.8=nompi_hfc0cae8_1114
flask=1.1.2=pyh9f0ad1d_0
fontconfig=2.13.1=hba837de_1004
freetype=2.10.4=h0708190_1
gast=0.3.3=py_0
gettext=0.19.8.1=h0b5b191_1005
glib=2.66.4=hc4f0c31_2
glib-tools=2.66.4=hc4f0c31_2
google-auth=1.24.0=pyhd3deb0d_0
google-auth-oauthlib=0.4.1=py_2
google-pasta=0.2.0=pyh8c360ce_0
gpytorch=1.3.1=pyhd8ed1ab_0
grpcio=1.35.0=py38hdd6454d_0
gst-plugins-base=1.14.5=h0935bb2_2
gstreamer=1.18.3=h3560a44_0
h5py=2.10.0=py38hd6299e0_1
hdf5=1.10.6=nompi_h7c3c948_1111
icu=67.1=he1b5a44_0
idna=2.10=pyh9f0ad1d_0
imagesize=1.2.0=py_0
importlib-metadata=3.4.0=py38h578d9bd_0
importlib_metadata=3.4.0=hd8ed1ab_0
ipykernel=5.4.2=py38h81c977d_0
ipython=7.19.0=py38h81c977d_2
ipython_genutils=0.2.0=py_1
ipywidgets=7.6.3=pyhd3deb0d_0
itsdangerous=1.1.0=py_0
jax=0.2.7=pyhd8ed1ab_0
jaxlib=0.1.59=py38h578d9bd_0
jedi=0.17.2=py38h578d9bd_1
jinja2=2.11.3=pyh44b312d_0
joblib=1.0.0=pyhd8ed1ab_0
jpeg=9d=h36c2ea0_0
jsonschema=3.2.0=py_2
jupyter=1.0.0=py38_7
jupyter_client=6.1.11=pyhd8ed1ab_1
jupyter_console=6.2.0=py_0
jupyter_core=4.7.1=py38h578d9bd_0
jupyterlab_pygments=0.1.2=pyh9f0ad1d_0
jupyterlab_widgets=1.0.0=pyhd8ed1ab_1
keras-preprocessing=1.1.2=pyhd8ed1ab_0
kim-api=2.1.3=h920f4d6_6
kimpy=0.3.3=py38hc9558a2_2
kiwisolver=1.3.1=py38h1fd1430_1
krb5=1.17.2=h926e7f8_0
lammps=2020.03.03=py38_mpich_2
latexcodec=2.0.1=pypi_0
lcms2=2.11=hcbb858e_1
ld_impl_linux-64=2.35.1=hea4e1c9_2
libclang=11.0.1=default_ha53f305_1
libcurl=7.71.1=hcdd3856_8
libedit=3.1.20191231=he28a2e2_2
libev=4.33=h516909a_1
libevent=2.1.10=hcdb4288_3
libffi=3.3=h58526e2_2
libgcc-ng=9.3.0=h2828fa1_18
libgfortran-ng=7.5.0=h14aa051_18
libgfortran4=7.5.0=h14aa051_18
libglib=2.66.4=h748fe8e_2
libiconv=1.16=h516909a_0
libidn2=2.3.0=h516909a_0
libllvm11=11.0.1=hf817b99_0
libnghttp2=1.41.0=h8cfc5f6_2
libpng=1.6.37=h21135ba_2
libpq=12.3=h255efa7_3
libprotobuf=3.14.0=h780b84a_0
libsodium=1.0.18=h36c2ea0_1
libssh2=1.9.0=hab1572f_5
libstdcxx-ng=9.3.0=h6de172a_18
libtiff=4.2.0=hdc55705_0
libunistring=0.9.10=h14c3975_0
libuuid=2.32.1=h7f98852_1000
libuv=1.40.0=h7f98852_0
libwebp-base=1.2.0=h7f98852_0
libxcb=1.13=h7f98852_1003
libxkbcommon=1.0.3=he3ba5ed_0
libxml2=2.9.10=h68273f3_2
llvm-openmp=11.0.1=h4bd325d_0
lz4-c=1.9.3=h9c3ff4c_0
markdown=3.3.3=pyh9f0ad1d_0
markupsafe=1.1.1=py38h497a2fe_3
matplotlib=3.2.2=0
matplotlib-base=3.2.2=py38h5d868c9_1
minisom=2.2.6=pypi_0
mistune=0.8.4=py38h497a2fe_1003
mkl=2020.4=h726a3e6_304
mkl-service=2.3.0=py38h1e0a361_2
mkl_fft=1.2.0=py38hab2c0dc_1
mkl_random=1.2.0=py38hc5bc63f_1
mpi=1.0=mpich
mpi4py=3.0.3=py38h028fd6f_0
mpich=3.3.2=h846660c_5
multidict=5.1.0=py38h497a2fe_1
mysql-common=8.0.22=ha770c72_3
mysql-libs=8.0.22=h935591d_3
nbclient=0.5.1=py_0
nbconvert=6.0.7=py38h578d9bd_3
nbformat=5.1.2=pyhd8ed1ab_1
ncurses=6.2=h58526e2_4
nest-asyncio=1.4.3=pyhd8ed1ab_0
nglview=2.7.7=pyh5ca1d4c_1
ninja=1.10.2=h4bd325d_0
notebook=6.2.0=py38h578d9bd_0
nspr=4.29=h9c3ff4c_1
nss=3.61=hb5efdd6_0
numpy=1.18.5=py38ha1c710e_0
numpy-base=1.18.5=py38hde5b4d6_0
oauthlib=3.0.1=py_0
olefile=0.46=pyh9f0ad1d_1
openssl=1.1.1i=h7f98852_0
opt_einsum=3.3.0=py_0
oset=0.1.3=pypi_0
packaging=20.8=pyhd3deb0d_0
pandas=1.0.5=py38h0573a6f_0
pandoc=2.11.4=h7f98852_0
pandocfilters=1.4.2=py_1
parso=0.7.1=pyh9f0ad1d_0
pcre=8.44=he1b5a44_0
pexpect=4.8.0=pyh9f0ad1d_2
pickleshare=0.7.5=py_1003
pillow=8.1.0=py38h357d4e7_1
pip=21.0.1=pyhd8ed1ab_0
pkg-config=0.29.2=h36c2ea0_1008
prometheus_client=0.9.0=pyhd3deb0d_0
prompt-toolkit=3.0.14=pyha770c72_0
prompt_toolkit=3.0.14=hd8ed1ab_0
protobuf=3.14.0=py38h709712a_1
pthread-stubs=0.4=h36c2ea0_1001
ptyprocess=0.7.0=pyhd3deb0d_0
pyasn1=0.4.8=py_0
pyasn1-modules=0.2.7=py_0
pybind11=2.5.0=pypi_0
pybtex=0.23.0=pypi_0
pybtex-docutils=0.2.2=pypi_0
pycparser=2.20=pyh9f0ad1d_2
pygments=2.7.4=pyhd8ed1ab_0
pyjwt=2.0.1=pyhd8ed1ab_0
pyopenssl=20.0.1=pyhd8ed1ab_0
pyparsing=2.4.7=pyh9f0ad1d_0
pyqt=5.12.3=py38h578d9bd_7
pyqt-impl=5.12.3=py38h7400c14_7
pyqt5-sip=4.19.18=py38h709712a_7
pyqtchart=5.12=py38h7400c14_7
pyqtwebengine=5.12.1=py38h7400c14_7
pyrsistent=0.17.3=py38h497a2fe_2
pysocks=1.7.1=py38h578d9bd_3
python=3.8.3=hcff3b4d_2
python-dateutil=2.8.1=py_0
python-flatbuffers=1.11=py_0
python_abi=3.8=1_cp38
pytorch=1.7.0=py3.8_cuda10.1.243_cudnn7.6.3_0
pytz=2021.1=pyhd8ed1ab_0
pyyaml=5.3.1=pypi_0
pyzmq=22.0.1=py38h3d7ac18_0
qt=5.12.9=h763d07f_1
qtconsole=5.0.2=pyhd8ed1ab_0
qtpy=1.9.0=py_0
readline=8.0=he28a2e2_2
requests=2.25.1=pyhd3deb0d_0
requests-oauthlib=1.3.0=pyh9f0ad1d_0
rsa=4.7=pyhd3deb0d_0
scikit-learn=0.23.1=py38h423224d_0
scipy=1.5.0=py38h0b6359f_0
seaborn=0.11.0=py_0
send2trash=1.5.0=py_0
setuptools=49.6.0=py38h578d9bd_3
six=1.15.0=pyh9f0ad1d_0
snowballstemmer=2.1.0=pyhd8ed1ab_0
sphinx=3.2.1=py_0
sphinx-rtd-theme=0.5.0=pypi_0
sphinxcontrib-applehelp=1.0.2=py_0
sphinxcontrib-bibtex=1.0.0=pypi_0
sphinxcontrib-devhelp=1.0.2=py_0
sphinxcontrib-htmlhelp=1.0.3=py_0
sphinxcontrib-jsmath=1.0.1=py_0
sphinxcontrib-qthelp=1.0.3=py_0
sphinxcontrib-serializinghtml=1.1.4=py_0
sqlite=3.34.0=h74cdb3f_0
tensorboard=2.4.1=pyhd8ed1ab_0
tensorboard-plugin-wit=1.8.0=pyh44b312d_0
tensorflow=2.3.0=eigen_py38h71ff20e_0
tensorflow-base=2.3.0=eigen_py38hb57a387_0
tensorflow-estimator=2.4.0=pyh9656e83_0
termcolor=1.1.0=py_2
terminado=0.9.2=py38h578d9bd_0
testpath=0.4.4=py_0
threadpoolctl=2.1.0=pyh5ca1d4c_0
tk=8.6.10=h21135ba_1
torchaudio=0.7.0=py38
torchvision=0.8.1=py38_cu101
tornado=6.1=py38h497a2fe_1
tqdm=4.54.1=pyhd3eb1b0_0
traitlets=5.0.5=py_0
typing-extensions=3.7.4.3=0
typing_extensions=3.7.4.3=py_0
urllib3=1.26.3=pyhd8ed1ab_0
wcwidth=0.2.5=pyh9f0ad1d_2
webencodings=0.5.1=py_1
werkzeug=1.0.1=pyh9f0ad1d_0
wget=1.20.1=h22169c7_0
wheel=0.36.2=pyhd3deb0d_0
widgetsnbextension=3.5.1=py38h578d9bd_4
wrapt=1.12.1=py38h497a2fe_3
xorg-libxau=1.0.9=h7f98852_0
xorg-libxdmcp=1.1.3=h7f98852_0
xz=5.2.5=h516909a_1
yarl=1.6.3=py38h497a2fe_1
zeromq=4.3.3=h58526e2_3
zipp=3.4.0=py_0
zlib=1.2.11=h516909a_1010
zstd=1.4.8=ha95c52a_1
